<?xml version="1.0" encoding="utf-8"?>
<!-- Generator: Adobe Illustrator 19.0.0, SVG Export Plug-In . SVG Version: 6.00 Build 0)  -->
<svg version="1.1" id="Capa_1" xmlns="http://www.w3.org/2000/svg" xmlns:xlink="http://www.w3.org/1999/xlink" x="0px" y="0px"
	 viewBox="-49 90 400 322" enable-background="new -49 90 400 322" xml:space="preserve">
<g id="XMLID_8591_">
	<polygon id="XMLID_9785_" fill="#B3D9FF" points="-25.2,107.6 -25.2,92.4 -33.7,92.4 -33.7,107.6 -49,107.6 -49,116.1 -33.7,116.1 
		-33.7,131.4 -25.2,131.4 -25.2,116.1 -10,116.1 -10,107.6 	"/>
	<polygon id="XMLID_9784_" fill="#469FF7" points="338.9,168.3 338.9,156.2 332.2,156.2 332.2,168.3 320.1,168.3 320.1,175 
		332.2,175 332.2,187.1 338.9,187.1 338.9,175 351,175 351,168.3 	"/>
	<circle id="XMLID_9783_" fill="#B3D9FF" cx="297" cy="393.8" r="12.6"/>
	<circle id="XMLID_9782_" fill="#B3D9FF" cx="-12.9" cy="389.8" r="8.7"/>
	<circle id="XMLID_9781_" fill="#469FF7" cx="-31.5" cy="351.9" r="13.4"/>
	<circle id="XMLID_9780_" fill="#B3D9FF" cx="311.6" cy="131.3" r="9.2"/>
	<path id="XMLID_9779_" fill="#B3D9FF" d="M141.9,91.6c2.1-2.2,5.4-2.2,7.5,0l14.7,15.6c2.1,2.2,5.9,2.8,8.5,1.3l18.8-10.3
		c2.6-1.4,5.8-0.4,7.1,2.3l9.1,19.4c1.3,2.7,4.7,4.5,7.7,3.9l21-4c2.9-0.6,5.7,1.4,6,4.4l2.7,21.2c0.4,3,3.1,5.7,6.1,6.1l21.2,2.7
		c3,0.4,4.9,3.1,4.4,6l-4,21c-0.6,2.9,1.2,6.4,3.9,7.7l19.4,9.1c2.7,1.3,3.7,4.5,2.3,7.1L288,224.1c-1.4,2.6-0.8,6.5,1.3,8.5
		l15.6,14.7c2.2,2.1,2.2,5.4,0,7.5l-15.6,14.7c-2.2,2.1-2.8,5.9-1.3,8.5l10.3,18.8c1.4,2.6,0.4,5.8-2.3,7.1l-19.4,9.1
		c-2.7,1.3-4.5,4.7-3.9,7.7l4,21c0.6,2.9-1.4,5.7-4.4,6l-21.2,2.7c-3,0.4-5.7,3.1-6.1,6.1l-2.7,21.2c-0.4,3-3.1,4.9-6,4.4l-21-4
		c-2.9-0.6-6.4,1.2-7.7,3.9l-9.1,19.4c-1.3,2.7-4.5,3.7-7.1,2.3l-18.8-10.3c-2.6-1.4-6.5-0.8-8.5,1.3l-14.7,15.6
		c-2.1,2.2-5.4,2.2-7.5,0l-14.7-15.6c-2.1-2.2-5.9-2.8-8.5-1.3l-18.8,10.3c-2.6,1.4-5.8,0.4-7.1-2.3L83.7,382
		c-1.3-2.7-4.7-4.5-7.7-3.9l-21,4c-2.9,0.6-5.7-1.4-6-4.4l-2.7-21.2c-0.4-3-3.1-5.7-6.1-6.1l-21.2-2.7c-3-0.4-4.9-3.1-4.4-6l4-21
		c0.6-2.9-1.2-6.4-3.9-7.7l-19.4-9.1c-2.7-1.3-3.7-4.5-2.3-7.1l10.3-18.8c1.4-2.6,0.8-6.4-1.3-8.5l-15.6-14.7
		c-2.2-2.1-2.2-5.4,0-7.5l15.6-14.7c2.2-2.1,2.8-5.9,1.3-8.5l-10.3-18.8c-1.4-2.6-0.4-5.8,2.3-7.1l19.4-9.1c2.7-1.3,4.5-4.7,3.9-7.7
		l-4-21c-0.6-2.9,1.4-5.7,4.4-6l21.2-2.7c3-0.4,5.7-3.1,6.1-6.1l2.7-21.2c0.4-3,3.1-4.9,6-4.4l21,4c2.9,0.6,6.4-1.2,7.7-3.9
		l9.1-19.4c1.3-2.7,4.5-3.7,7.1-2.3l18.8,10.3c2.6,1.4,6.5,0.8,8.5-1.3L141.9,91.6z"/>
	
		<ellipse id="XMLID_9778_" opacity="0.5" fill="#FFFFFF" stroke="#B3D9FF" stroke-width="2.3245" stroke-miterlimit="10" cx="146.2" cy="248.2" rx="90.9" ry="90.9"/>
	<g id="XMLID_9639_">
		<g id="XMLID_9775_">
			<path id="XMLID_9777_" fill="#469FF7" d="M263,248.9c0,0-0.2-1.9-0.7-4.1c-0.5-2.2-1.6-4.7-3-5.9c0,0-0.2-0.2-0.5-0.4
				c-0.3-0.3-0.8-0.6-1.4-1c-1.2-0.8-2.8-1.6-4.5-2c0,0-0.3,1.5-0.1,3.6c0.1,1.1,0.3,2.3,0.7,3.6c0.2,0.6,0.5,1.3,0.9,2
				c0.3,0.7,0.8,1.3,1.3,2c0,0,1,0.8,2.4,1.6C259.4,248.8,261.2,249.5,263,248.9z"/>
			<path id="XMLID_9776_" fill="#469FF7" d="M263,248.8c0,0,0.9-1.7,2.2-3.6c0.3-0.5,0.7-1,1.1-1.5c0.4-0.5,0.7-1,1.1-1.4
				c0.8-0.9,1.7-1.7,2.5-2.1c0,0,0.9-0.5,2.3-1c1.4-0.5,3.2-1.1,4.9-1.2c0,0-0.1,1.9-0.9,4.3c-0.4,1.2-1.1,2.5-2,3.8
				c-0.9,1.3-2.1,2.5-3.6,3.4c0,0-1.2,0.5-2.8,0.6C266.3,250.2,264.4,250,263,248.8z"/>
		</g>
		<g id="XMLID_9772_">
			<path id="XMLID_9774_" fill="#469FF7" d="M261.7,232.9c0,0,0-0.1-0.1-0.3c0-0.2-0.1-0.5-0.2-0.9c-0.2-0.7-0.5-1.7-1-2.8
				c-0.8-2.1-2.2-4.4-3.8-5.4c0,0-0.8-0.6-2.1-1.2c-1.3-0.6-3-1.2-4.8-1.4c0,0,0,0.4,0,1c0,0.3,0.1,0.7,0.1,1.1
				c0.1,0.4,0.1,0.9,0.2,1.4c0.2,1,0.6,2.2,1.3,3.4c0.6,1.2,1.4,2.5,2.7,3.6c0,0,1.1,0.7,2.6,1.2
				C258.2,233.3,260.1,233.7,261.7,232.9z"/>
			<path id="XMLID_9773_" fill="#469FF7" d="M261.7,232.8c0,0,0.2-0.4,0.5-1.1c0.3-0.7,0.7-1.7,1.2-2.7c0.5-1,1.1-2.2,1.8-3.2
				c0.7-1,1.4-1.9,2.2-2.4c0,0,0.8-0.6,2.1-1.3c1.3-0.7,3-1.5,4.7-1.8c0,0,0.1,0.5,0,1.2c0,0.8,0,1.9-0.3,3.1
				c-0.3,1.2-0.7,2.6-1.4,4c-0.4,0.7-0.8,1.4-1.3,2c-0.5,0.7-1.1,1.3-1.8,1.9c0,0-1.2,0.6-2.8,1
				C265.2,233.8,263.2,233.9,261.7,232.8z"/>
		</g>
		<g id="XMLID_9769_">
			<path id="XMLID_9771_" fill="#469FF7" d="M258.3,217.3c0,0-0.2-0.4-0.4-1.1c-0.3-0.7-0.7-1.6-1.3-2.6c-0.6-1-1.2-2-2-2.9
				c-0.8-0.9-1.6-1.6-2.5-2c0,0-0.9-0.5-2.2-0.9c-0.7-0.2-1.4-0.4-2.3-0.6c-0.8-0.1-1.7-0.2-2.6-0.2c0,0,0,0.4,0.2,1
				c0.1,0.6,0.3,1.5,0.7,2.5c0.2,0.5,0.4,1,0.7,1.6c0.3,0.5,0.6,1.1,1,1.6c0.8,1.1,1.8,2.2,3.2,3.2c0,0,0.3,0.1,0.8,0.3
				c0.5,0.2,1.1,0.4,1.9,0.6C254.8,218.2,256.8,218.3,258.3,217.3z"/>
			<path id="XMLID_9770_" fill="#469FF7" d="M258.3,217.2c0,0,0.1-0.5,0.3-1.2c0.2-0.7,0.5-1.7,0.8-2.8c0.7-2.2,1.8-4.8,3.3-6.1
				c0,0,0.7-0.7,1.9-1.6c1.1-0.9,2.7-1.9,4.4-2.5c0,0,0.1,0.5,0.2,1.2c0.1,0.8,0.2,1.9,0.1,3.1c-0.1,1.3-0.3,2.7-0.8,4.2
				c-0.5,1.5-1.4,2.9-2.6,4.3c0,0-1.1,0.8-2.6,1.3C261.8,217.7,259.9,218,258.3,217.2z"/>
		</g>
		<g id="XMLID_9766_">
			<path id="XMLID_9768_" fill="#469FF7" d="M252.8,202.2c0,0-0.2-0.4-0.6-1.1c-0.4-0.6-0.9-1.5-1.6-2.4c-1.4-1.8-3.2-3.7-5.1-4.2
				c0,0-1-0.3-2.4-0.6c-1.4-0.2-3.2-0.4-4.9-0.1c0,0,0.1,0.4,0.3,1c0.2,0.6,0.5,1.5,1,2.4c0.3,0.5,0.6,0.9,0.9,1.4
				c0.3,0.5,0.7,1,1.2,1.5c0.9,1,2.1,1.9,3.6,2.8c0,0,1.2,0.4,2.8,0.5C249.5,203.6,251.4,203.5,252.8,202.2z"/>
			<path id="XMLID_9767_" fill="#469FF7" d="M252.8,202.1c0,0,0-0.5,0.1-1.2c0.1-0.8,0.3-1.8,0.5-2.9c0.4-2.3,1.1-5,2.4-6.5
				c0,0,0.6-0.8,1.7-1.9c1-1,2.4-2.3,4-3.1c0,0,0,0.1,0.1,0.3c0.1,0.2,0.2,0.5,0.3,0.9c0.2,0.8,0.4,1.8,0.5,3.1
				c0.1,1.3,0.1,2.7-0.3,4.2c-0.3,1.5-0.9,3.1-2,4.6c0,0-1,0.9-2.4,1.7C256.3,202.2,254.5,202.7,252.8,202.1z"/>
		</g>
		<g id="XMLID_9763_">
			<path id="XMLID_9765_" fill="#469FF7" d="M245.3,188.1c0,0-1.1-1.5-2.7-3.2c-1.7-1.6-3.8-3.2-5.7-3.5c0,0-1-0.2-2.4-0.2
				c-1.4,0-3.2,0.1-4.9,0.6c0,0,0.5,1.5,1.8,3.2c0.7,0.8,1.4,1.8,2.5,2.6c1.1,0.9,2.4,1.6,3.9,2.3c0,0,1.3,0.2,2.8,0.1
				C242.2,189.9,244.1,189.5,245.3,188.1z"/>
			<path id="XMLID_9764_" fill="#469FF7" d="M245.2,188c0,0-0.1-1.9,0-4.2c0.1-2.3,0.4-5,1.5-6.7c0,0,0.5-0.9,1.4-2.1
				c0.9-1.2,2.1-2.6,3.6-3.6c0,0,0.9,1.7,1.5,4.1c0.1,0.6,0.3,1.3,0.3,2c0,0.7,0,1.5,0,2.3c-0.1,1.6-0.5,3.2-1.3,4.8
				c0,0-0.8,1.1-2.1,2C248.8,187.5,247,188.3,245.2,188z"/>
		</g>
		<g id="XMLID_9760_">
			<path id="XMLID_9762_" fill="#469FF7" d="M235.9,175.1c0,0-1.3-1.4-3.1-2.7c-0.9-0.7-2-1.3-3-1.8c-1.1-0.5-2.1-0.8-3.1-0.8
				c0,0-0.3,0-0.7,0c-0.4,0-1,0-1.7,0.1c-1.4,0.2-3.2,0.5-4.8,1.3c0,0,0.7,1.4,2.2,2.9c0.7,0.8,1.6,1.6,2.8,2.3
				c0.6,0.4,1.2,0.7,1.9,1c0.7,0.3,1.4,0.6,2.3,0.8c0,0,1.3,0,2.8-0.3C233.1,177.3,234.9,176.7,235.9,175.1z"/>
			<path id="XMLID_9761_" fill="#469FF7" d="M235.8,175c0,0-0.4-1.8-0.6-4.2c-0.2-2.3-0.3-5.1,0.5-6.9c0,0,0.4-1,1.1-2.2
				c0.7-1.3,1.7-2.8,3.1-4c0,0,1.1,1.5,2,3.9c0.9,2.4,1.4,5.7,0.3,9.1c0,0-0.7,1.2-1.8,2.3C239.3,174.1,237.7,175.1,235.8,175z"/>
		</g>
		<g id="XMLID_9757_">
			<path id="XMLID_9759_" fill="#469FF7" d="M224.8,163.5c0,0-0.1-0.1-0.3-0.2c-0.2-0.1-0.4-0.3-0.7-0.5c-0.6-0.4-1.5-1-2.5-1.6
				c-0.5-0.3-1-0.6-1.5-0.8c-0.5-0.2-1.1-0.4-1.7-0.6c-1.1-0.3-2.2-0.5-3.2-0.4c0,0-0.3,0-0.7,0.1c-0.4,0.1-1,0.1-1.7,0.3
				c-1.4,0.4-3.1,1-4.6,1.9c0,0,0.2,0.3,0.7,0.8c0.4,0.5,1.1,1.1,1.9,1.8c0.8,0.7,1.9,1.3,3.1,1.9c0.6,0.3,1.3,0.5,2,0.7
				c0.7,0.2,1.5,0.3,2.4,0.4c0,0,1.3-0.1,2.8-0.7C222.4,166.1,224,165.2,224.8,163.5z"/>
			<path id="XMLID_9758_" fill="#469FF7" d="M224.8,163.4c0,0-0.1-0.4-0.4-1.2c-0.2-0.7-0.5-1.7-0.8-2.9c-0.3-1.1-0.5-2.4-0.6-3.6
				c-0.1-1.2-0.1-2.3,0.2-3.3c0,0,0.3-1,0.8-2.4c0.5-1.4,1.3-3.1,2.5-4.4c0,0,1.3,1.3,2.6,3.5c0.6,1.1,1.1,2.5,1.4,4
				c0.3,1.5,0.4,3.2,0,5c0,0-0.5,1.2-1.5,2.5C228,162,226.6,163.3,224.8,163.4z"/>
		</g>
		<g id="XMLID_9754_">
			<path id="XMLID_9756_" fill="#469FF7" d="M212.3,153.5c0,0-0.4-0.3-1.1-0.6c-0.7-0.3-1.6-0.8-2.7-1.2c-1.1-0.4-2.2-0.8-3.4-1
				c-1.2-0.2-2.3-0.2-3.2,0.1c0,0-1,0.2-2.3,0.7c-1.3,0.5-3,1.4-4.3,2.5c0,0,0.3,0.3,0.8,0.7c0.3,0.2,0.6,0.4,0.9,0.7
				c0.4,0.3,0.8,0.5,1.2,0.8c0.9,0.5,2,1.1,3.4,1.4c1.3,0.4,2.8,0.6,4.5,0.5c0,0,0.3-0.1,0.8-0.3c0.5-0.2,1.2-0.4,1.9-0.8
				C210.2,156.4,211.7,155.3,212.3,153.5z"/>
			<path id="XMLID_9755_" fill="#469FF7" d="M212.2,153.5c0,0-0.2-0.4-0.5-1.1c-0.3-0.7-0.7-1.6-1.2-2.7c-0.8-2.2-1.6-4.9-1.3-6.8
				c0,0,0.1-1,0.5-2.4c0.3-1.4,0.9-3.2,1.9-4.7c0,0,0.4,0.3,0.9,0.8c0.6,0.5,1.3,1.3,2.1,2.4c1.5,2.1,2.9,5.1,2.7,8.7
				c0,0-0.3,1.3-1.2,2.7C215.3,151.6,214,153.1,212.2,153.5z"/>
		</g>
		<g id="XMLID_9751_">
			<path id="XMLID_9753_" fill="#469FF7" d="M198.5,145.4c0,0-0.4-0.2-1.1-0.5c-0.7-0.3-1.7-0.6-2.8-0.8c-1.1-0.3-2.3-0.5-3.5-0.5
				c-1.2,0-2.3,0.1-3.2,0.5c0,0-0.9,0.4-2.2,1c-0.6,0.3-1.3,0.8-2,1.3c-0.7,0.5-1.3,1.1-1.9,1.8c0,0,0.3,0.2,0.9,0.6
				c0.5,0.4,1.3,0.8,2.3,1.2c0.5,0.2,1,0.4,1.6,0.5c0.6,0.1,1.2,0.3,1.9,0.4c1.3,0.2,2.8,0.2,4.5-0.1c0,0,0.3-0.1,0.8-0.4
				c0.5-0.2,1.1-0.6,1.7-1C196.8,148.5,198.2,147.2,198.5,145.4z"/>
			<path id="XMLID_9752_" fill="#469FF7" d="M198.4,145.3c0,0-0.3-0.4-0.7-1c-0.2-0.3-0.4-0.7-0.7-1.2c-0.3-0.4-0.5-0.9-0.8-1.4
				c-1.1-2-2.3-4.6-2.2-6.5c0,0,0-1,0.1-2.5c0.1-1.4,0.5-3.3,1.2-4.9c0,0,1.7,0.9,3.4,2.8c0.9,0.9,1.8,2.1,2.5,3.4
				c0.7,1.4,1.2,3,1.4,4.8c0,0-0.2,1.3-0.8,2.8C201.2,143.1,200.1,144.7,198.4,145.3z"/>
		</g>
		<g id="XMLID_9748_">
			<path id="XMLID_9750_" fill="#469FF7" d="M183.7,139.1c0,0-0.5-0.1-1.2-0.3c-0.7-0.1-1.7-0.4-2.9-0.5c-1.1-0.1-2.4-0.1-3.5,0
				c-0.6,0.1-1.1,0.1-1.6,0.3c-0.5,0.2-1,0.4-1.4,0.6c0,0-0.9,0.5-2,1.3c-1.1,0.9-2.5,2.1-3.4,3.6c0,0,1.3,0.8,3.4,1.3
				c0.5,0.1,1.1,0.2,1.7,0.3c0.6,0.1,1.2,0.2,1.9,0.2c1.3,0,2.9-0.2,4.5-0.7c0,0,1.1-0.6,2.3-1.7C182.5,142.5,183.7,141,183.7,139.1
				z"/>
			<path id="XMLID_9749_" fill="#469FF7" d="M183.7,139.1c0,0-1.3-1.4-2.6-3.3c-1.4-1.8-2.9-4.2-3.1-6.1c0,0-0.2-1-0.2-2.5
				c0-1.5,0-3.3,0.5-5c0,0,0.4,0.2,1.1,0.5c0.7,0.4,1.6,1,2.6,1.7c2,1.5,4.2,4.2,5,7.7c0,0,0,1.3-0.4,2.9
				C186.1,136.5,185.3,138.2,183.7,139.1z"/>
		</g>
		<g id="XMLID_9745_">
			<path id="XMLID_9747_" fill="#469FF7" d="M168.3,135c0,0-1.9-0.2-4.1-0.2c-2.3,0.1-4.9,0.6-6.4,1.8c0,0-0.2,0.1-0.5,0.4
				c-0.3,0.3-0.8,0.7-1.3,1.2c-1,1-2.2,2.4-2.9,4c0,0,1.4,0.6,3.5,0.8c1.1,0.1,2.3,0.2,3.6,0c0.7-0.1,1.4-0.3,2.1-0.5
				c0.7-0.2,1.5-0.5,2.2-0.8c0,0,1-0.8,2-2C167.5,138.5,168.5,136.8,168.3,135z"/>
			<path id="XMLID_9746_" fill="#469FF7" d="M168.2,134.9c0,0-1.4-1.2-3.1-2.9c-0.4-0.4-0.8-0.9-1.2-1.3c-0.4-0.4-0.8-0.9-1.2-1.4
				c-0.7-1-1.3-2-1.5-2.9c0,0-0.3-1-0.6-2.4c-0.3-1.4-0.4-3.3-0.2-5.1c0,0,1.8,0.4,4,1.7c1.1,0.6,2.3,1.6,3.3,2.7
				c1.1,1.1,2,2.5,2.6,4.2c0,0,0.2,1.3,0,2.9C170.3,132,169.7,133.8,168.2,134.9z"/>
		</g>
		<g id="XMLID_9742_">
			<path id="XMLID_9744_" fill="#469FF7" d="M152.4,133c0,0-0.1,0-0.3,0c-0.2,0-0.5,0-0.9,0c-0.8,0.1-1.8,0.2-2.9,0.4
				c-1.1,0.2-2.3,0.4-3.4,0.9c-1.1,0.5-2,1-2.7,1.7c0,0-0.7,0.7-1.6,1.8c-0.9,1.1-1.8,2.7-2.3,4.4c0,0,0.4,0.1,1,0.2
				c0.6,0.1,1.5,0.2,2.6,0.2c1.1,0,2.3-0.2,3.6-0.6c1.3-0.3,2.7-0.9,4.1-1.9c0,0,0.9-0.9,1.7-2.3C152.1,136.5,152.8,134.8,152.4,133
				z"/>
			<path id="XMLID_9743_" fill="#469FF7" d="M152.3,132.9c0,0-0.1-0.1-0.3-0.2c-0.2-0.1-0.4-0.3-0.8-0.5c-0.6-0.4-1.5-1-2.4-1.7
				c-0.9-0.7-1.9-1.5-2.7-2.4c-0.8-0.9-1.6-1.8-1.9-2.7c0,0-0.4-0.9-0.9-2.3c-0.4-1.4-0.9-3.2-0.8-5c0,0,0.5,0,1.2,0.2
				c0.8,0.2,1.8,0.4,3,1c1.2,0.5,2.4,1.2,3.6,2.2c0.6,0.5,1.2,1,1.7,1.7c0.5,0.6,1,1.4,1.5,2.2c0,0,0.4,1.3,0.4,2.9
				C153.9,129.8,153.6,131.7,152.3,132.9z"/>
		</g>
		<g id="XMLID_9739_">
			<path id="XMLID_9741_" fill="#469FF7" d="M136.4,133.2c0,0-0.5,0.1-1.2,0.2c-0.4,0.1-0.8,0.2-1.3,0.3c-0.5,0.1-1,0.3-1.5,0.5
				c-2.2,0.7-4.6,1.8-5.7,3.4c0,0-0.6,0.8-1.3,2c-0.7,1.2-1.4,2.9-1.7,4.6c0,0,0.1,0,0.3,0c0.2,0,0.4,0,0.8,0c0.6,0,1.6,0,2.6-0.2
				c0.5-0.1,1.1-0.2,1.7-0.4c0.6-0.2,1.2-0.3,1.8-0.6c1.3-0.5,2.5-1.3,3.8-2.5c0,0,0.8-1,1.4-2.4
				C136.5,136.7,137.1,134.9,136.4,133.2z"/>
			<path id="XMLID_9740_" fill="#469FF7" d="M136.2,133.1c0,0-0.4-0.2-1.1-0.5c-0.7-0.3-1.6-0.9-2.6-1.4c-2-1.1-4.3-2.7-5.3-4.4
				c0,0-0.6-0.9-1.2-2.2c-0.6-1.3-1.3-3-1.5-4.8c0,0,0.5,0,1.2,0c0.8,0.1,1.9,0.2,3.1,0.6c1.2,0.3,2.6,0.8,3.9,1.7
				c1.3,0.8,2.6,2,3.7,3.4c0,0,0.6,1.2,0.8,2.8C137.5,129.8,137.4,131.7,136.2,133.1z"/>
		</g>
		<g id="XMLID_9736_">
			<path id="XMLID_9738_" fill="#469FF7" d="M120.5,135.5c0,0-1.8,0.5-3.9,1.5c-2,1-4.3,2.5-5.2,4.2c0,0-0.5,0.9-1,2.2
				c-0.5,1.3-1,3.1-1.1,4.8c0,0,1.6,0,3.6-0.6c1-0.3,2.2-0.7,3.3-1.5c0.6-0.4,1.2-0.8,1.7-1.3c0.6-0.5,1.1-1,1.7-1.7
				c0,0,0.6-1.1,1.1-2.6C121.2,139,121.4,137.1,120.5,135.5z"/>
			<path id="XMLID_9737_" fill="#469FF7" d="M120.4,135.5c0,0-1.8-0.5-4-1.4c-2.1-0.9-4.6-2.1-5.8-3.6c0,0-0.7-0.8-1.5-2
				c-0.8-1.2-1.7-2.9-2.2-4.6c0,0,1.9-0.3,4.4,0c0.6,0.1,1.3,0.2,2,0.4c0.7,0.2,1.4,0.5,2.1,0.8c1.4,0.6,2.8,1.5,4.1,2.8
				c0,0,0.7,1.1,1.2,2.7C121.2,132,121.3,133.9,120.4,135.5z"/>
		</g>
		<g id="XMLID_9733_">
			<path id="XMLID_9735_" fill="#469FF7" d="M105.1,139.9c0,0-1.7,0.8-3.6,2c-0.5,0.3-1,0.6-1.4,1c-0.5,0.4-0.9,0.8-1.3,1.2
				c-0.8,0.8-1.5,1.7-1.8,2.6c0,0-0.1,0.2-0.2,0.6c-0.1,0.4-0.3,1-0.5,1.7c-0.3,1.4-0.6,3.2-0.4,5c0,0,0.4-0.1,1-0.2
				c0.6-0.2,1.5-0.5,2.4-0.9c2-0.8,4.2-2.5,6.1-5.3c0,0,0.5-1.2,0.7-2.8C106.3,143.3,106.2,141.4,105.1,139.9z"/>
			<path id="XMLID_9734_" fill="#469FF7" d="M105,140c0,0-1.8-0.3-4.1-0.8c-2.3-0.6-4.9-1.4-6.3-2.8c0,0-0.8-0.7-1.7-1.8
				c-1-1.1-2.1-2.6-2.8-4.3c0,0,1.8-0.6,4.3-0.6c2.6,0,5.8,0.6,8.7,2.8c0,0,0.9,1,1.5,2.5C105.3,136.4,105.7,138.3,105,140z"/>
		</g>
		<g id="XMLID_9730_">
			<path id="XMLID_9732_" fill="#469FF7" d="M90.5,146.5c0,0-0.4,0.2-1,0.7c-0.6,0.4-1.4,1.1-2.3,1.8c-1.7,1.5-3.5,3.5-3.9,5.4
				c0,0-0.3,1-0.4,2.4c-0.1,1.4-0.1,3.3,0.3,5c0,0,0.4-0.1,1-0.4c0.6-0.3,1.4-0.7,2.3-1.2c0.9-0.6,1.9-1.3,2.8-2.3
				c0.9-1,1.8-2.2,2.5-3.7c0,0,0.3-1.3,0.3-2.8C92.1,149.7,91.8,147.8,90.5,146.5z"/>
			<path id="XMLID_9731_" fill="#469FF7" d="M90.4,146.5c0,0-0.5,0-1.2-0.1c-0.8,0-1.8-0.1-2.9-0.2c-1.2-0.1-2.4-0.3-3.6-0.7
				c-1.2-0.3-2.2-0.7-3-1.3c0,0-0.9-0.6-2-1.5c-1.1-0.9-2.4-2.3-3.3-3.8c0,0,0.4-0.2,1.2-0.5c0.7-0.2,1.8-0.6,3-0.7
				c1.3-0.2,2.7-0.2,4.3,0c0.8,0.1,1.5,0.3,2.3,0.5c0.8,0.3,1.6,0.6,2.4,1.1c0,0,1,0.9,1.8,2.3C90.2,143,90.9,144.8,90.4,146.5z"/>
		</g>
		<g id="XMLID_9727_">
			<path id="XMLID_9729_" fill="#469FF7" d="M76.9,155c0,0-0.4,0.3-0.9,0.8c-0.6,0.5-1.3,1.3-2,2.1c-0.7,0.9-1.5,1.8-2.1,2.8
				c-0.5,1-0.9,2.1-1,3.1c0,0-0.1,1-0.1,2.4c0,1.4,0.3,3.2,1,4.9c0,0,1.4-0.7,3-2c0.8-0.7,1.7-1.6,2.4-2.7c0.8-1.1,1.5-2.4,2-4.1
				c0,0,0-0.3,0-0.8c0-0.5,0-1.2-0.1-2C78.9,157.9,78.4,156.1,76.9,155z"/>
			<path id="XMLID_9728_" fill="#469FF7" d="M76.8,155c0,0-0.5,0.1-1.2,0.1c-0.8,0-1.8,0.1-3,0.2c-2.3,0.1-5.1-0.1-6.8-1
				c0,0-0.9-0.4-2.1-1.2c-1.2-0.8-2.7-1.9-3.8-3.3c0,0,0.4-0.3,1.1-0.6c0.7-0.4,1.7-0.8,2.9-1.1c1.2-0.3,2.7-0.6,4.2-0.6
				c1.5,0,3.2,0.3,4.9,1c0,0,1.1,0.8,2.1,2C76.1,151.5,77.1,153.2,76.8,155z"/>
		</g>
		<g id="XMLID_9724_">
			<path id="XMLID_9726_" fill="#469FF7" d="M64.6,165.2c0,0-0.3,0.3-0.8,0.9c-0.5,0.6-1.1,1.4-1.7,2.4c-1.2,1.9-2.4,4.3-2.3,6.3
				c0,0,0,1,0.3,2.4c0.2,1.4,0.7,3.1,1.6,4.7c0,0,0.1-0.1,0.2-0.2c0.1-0.1,0.4-0.3,0.6-0.5c0.5-0.4,1.2-1,1.9-1.8
				c1.4-1.6,3-3.9,3.5-7.3c0,0,0-1.3-0.5-2.8C67,167.9,66.2,166.1,64.6,165.2z"/>
			<path id="XMLID_9725_" fill="#469FF7" d="M64.5,165.3c0,0-0.5,0.1-1.2,0.3c-0.7,0.2-1.8,0.3-2.9,0.5c-2.3,0.4-5,0.6-6.9-0.1
				c0,0-1-0.3-2.3-0.9c-1.3-0.6-2.9-1.5-4.2-2.8c0,0,0.3-0.3,1-0.8c0.6-0.4,1.6-1,2.8-1.5c1.2-0.5,2.5-1,4.1-1.2
				c1.6-0.2,3.3-0.1,5,0.3c0,0,1.2,0.6,2.4,1.7C63.3,161.9,64.5,163.5,64.5,165.3z"/>
		</g>
		<g id="XMLID_9721_">
			<path id="XMLID_9723_" fill="#469FF7" d="M53.8,177.1c0,0-0.3,0.4-0.7,1c-0.4,0.6-0.9,1.5-1.4,2.6c-0.5,1-0.9,2.2-1.2,3.3
				c-0.1,0.6-0.2,1.1-0.3,1.7c0,0.5,0,1.1,0.1,1.5c0,0,0.2,1,0.6,2.4c0.4,1.3,1.1,3,2.2,4.4c0,0,1.2-1,2.4-2.7
				c0.3-0.4,0.6-0.9,0.9-1.5c0.3-0.5,0.6-1.1,0.8-1.8c0.2-0.6,0.4-1.3,0.6-2.1c0.1-0.4,0.1-0.8,0.2-1.2c0-0.4,0.1-0.8,0.1-1.2
				c0,0-0.2-1.3-0.8-2.7C56.5,179.4,55.5,177.7,53.8,177.1z"/>
			<path id="XMLID_9722_" fill="#469FF7" d="M53.7,177.1c0,0-1.7,0.7-4,1.4c-2.2,0.7-4.9,1.3-6.8,0.9c0,0-1-0.2-2.4-0.6
				c-1.4-0.4-3.1-1.1-4.6-2.2c0,0,0.1-0.1,0.2-0.2c0.2-0.2,0.4-0.4,0.7-0.6c0.6-0.5,1.4-1.2,2.5-1.9c2.1-1.4,5.3-2.5,8.9-2.1
				c0,0,1.3,0.4,2.6,1.3C52.1,173.9,53.4,175.3,53.7,177.1z"/>
		</g>
		<g id="XMLID_9718_">
			<path id="XMLID_9720_" fill="#469FF7" d="M44.7,190.2c0,0-0.9,1.7-1.6,3.8c-0.7,2.2-1.1,4.8-0.5,6.6c0,0,0.3,1,0.9,2.3
				c0.6,1.3,1.6,2.8,2.8,4.1c0,0,1.1-1.1,2-3c0.4-1,0.9-2.1,1.2-3.4c0.1-0.7,0.2-1.4,0.3-2.1c0-0.8,0-1.5,0-2.4c0,0-0.4-1.2-1.2-2.6
				C47.7,192.1,46.5,190.6,44.7,190.2z"/>
			<path id="XMLID_9719_" fill="#469FF7" d="M44.6,190.3c0,0-1.6,1-3.7,1.9c-1.1,0.5-2.2,1-3.4,1.3c-1.1,0.4-2.3,0.6-3.3,0.5
				c0,0-1,0-2.5-0.3c-1.4-0.2-3.3-0.7-4.8-1.6c0,0,1-1.6,3-3.2c0.9-0.8,2.2-1.6,3.6-2.2c1.4-0.6,3.1-1,4.9-1.1c0,0,1.3,0.2,2.7,1
				C42.6,187.4,44.1,188.5,44.6,190.3z"/>
		</g>
		<g id="XMLID_9715_">
			<path id="XMLID_9717_" fill="#469FF7" d="M37.4,204.5c0,0-0.6,1.8-1,4c-0.1,0.6-0.2,1.1-0.2,1.7c0,0.6,0,1.2,0,1.8
				c0.1,1.2,0.3,2.3,0.7,3.1c0,0,0.1,0.2,0.3,0.6c0.2,0.4,0.5,0.9,0.9,1.5c0.8,1.2,2,2.6,3.4,3.7c0,0,0.2-0.3,0.5-0.9
				c0.3-0.6,0.6-1.4,1-2.4c0.7-2,1.1-4.8,0.3-8.1c0,0-0.6-1.2-1.6-2.4C40.7,206,39.3,204.7,37.4,204.5z"/>
			<path id="XMLID_9716_" fill="#469FF7" d="M37.4,204.6c0,0-1.5,1.2-3.4,2.4c-2,1.2-4.4,2.6-6.3,2.7c0,0-1,0.1-2.5,0.1
				c-1.5-0.1-3.3-0.2-5-0.9c0,0,0.8-1.7,2.5-3.6c1.8-1.9,4.4-3.9,8-4.4c0,0,1.3,0.1,2.9,0.6C35,202,36.6,202.9,37.4,204.6z"/>
		</g>
		<g id="XMLID_9712_">
			<path id="XMLID_9714_" fill="#469FF7" d="M32.2,219.7c0,0-0.1,0.5-0.2,1.2c-0.1,0.8-0.2,1.8-0.2,2.9c0,1.1,0,2.4,0.2,3.5
				c0.2,1.2,0.6,2.2,1.1,3c0,0,0.5,0.9,1.5,1.9c0.9,1.1,2.3,2.3,3.8,3.2c0,0,0.2-0.3,0.4-1c0.2-0.6,0.5-1.5,0.7-2.5
				c0.2-1,0.3-2.3,0.2-3.6c-0.1-1.3-0.3-2.8-1-4.4c0,0-0.2-0.3-0.5-0.7c-0.3-0.4-0.8-0.9-1.4-1.5C35.7,220.7,34.1,219.6,32.2,219.7z
				"/>
			<path id="XMLID_9713_" fill="#469FF7" d="M32.2,219.8c0,0-0.3,0.3-0.9,0.9c-0.5,0.5-1.3,1.2-2.2,2c-1.8,1.5-4,3.1-5.9,3.5
				c0,0-1,0.2-2.4,0.4c-1.4,0.2-3.3,0.2-5.1-0.2c0,0,0.1-0.4,0.4-1.2c0.3-0.7,0.8-1.7,1.5-2.7c1.5-2.1,3.8-4.4,7.3-5.5
				c0,0,1.3-0.1,2.9,0.2C29.5,217.5,31.2,218.2,32.2,219.8z"/>
		</g>
		<g id="XMLID_9709_">
			<path id="XMLID_9711_" fill="#469FF7" d="M29.2,235.4c0,0,0,0.5,0,1.2c0,0.8,0,1.8,0.1,2.9c0.3,2.3,0.8,4.9,2.2,6.3
				c0,0,0.7,0.8,1.7,1.7c1.1,0.9,2.5,2,4.2,2.6c0,0,0.6-1.5,0.6-3.6c0-0.5,0-1.1,0-1.7c-0.1-0.6-0.1-1.2-0.2-1.9
				c-0.3-1.3-0.8-2.8-1.6-4.2c0,0-0.8-1-2.1-1.9C32.7,235.9,31,235.1,29.2,235.4z"/>
			<path id="XMLID_9710_" fill="#469FF7" d="M29.1,235.5c0,0-0.3,0.4-0.8,1c-0.5,0.6-1.2,1.4-1.9,2.3c-1.5,1.7-3.5,3.7-5.4,4.3
				c0,0-1,0.4-2.4,0.7c-1.4,0.3-3.2,0.7-5,0.5c0,0,0-0.1,0.1-0.3c0-0.2,0.1-0.5,0.2-0.9c0.2-0.7,0.6-1.8,1.2-2.9
				c0.6-1.1,1.3-2.4,2.4-3.5c1.1-1.1,2.4-2.2,4.1-2.9c0,0,1.3-0.3,2.9-0.2C26.1,233.6,28,234.1,29.1,235.5z"/>
		</g>
		<g id="XMLID_9706_">
			<path id="XMLID_9708_" fill="#469FF7" d="M28.3,251.4c0,0,0.2,1.9,0.7,4.1c0.5,2.2,1.6,4.7,3,5.9c0,0,0.2,0.2,0.5,0.4
				c0.3,0.3,0.8,0.6,1.4,1c1.2,0.8,2.8,1.6,4.5,2c0,0,0.3-1.5,0.1-3.6c-0.1-1.1-0.3-2.3-0.7-3.6c-0.2-0.6-0.5-1.3-0.9-2
				c-0.3-0.7-0.8-1.3-1.3-2c0,0-1-0.8-2.4-1.6C31.8,251.4,30,250.8,28.3,251.4z"/>
			<path id="XMLID_9707_" fill="#469FF7" d="M28.2,251.5c0,0-0.9,1.7-2.2,3.6c-0.3,0.5-0.7,1-1.1,1.5c-0.4,0.5-0.7,1-1.1,1.4
				c-0.8,0.9-1.7,1.7-2.6,2.1c0,0-0.9,0.5-2.3,1c-1.3,0.5-3.2,1.1-4.9,1.2c0,0,0.1-1.9,0.9-4.3c0.4-1.2,1.1-2.5,2-3.8
				c0.9-1.3,2.1-2.5,3.6-3.4c0,0,1.3-0.5,2.8-0.6C24.9,250,26.9,250.3,28.2,251.5z"/>
		</g>
		<g id="XMLID_9703_">
			<path id="XMLID_9705_" fill="#469FF7" d="M29.5,267.4c0,0,0,0.1,0.1,0.3c0,0.2,0.1,0.5,0.2,0.9c0.2,0.7,0.5,1.7,0.9,2.8
				c0.8,2.1,2.2,4.4,3.8,5.4c0,0,0.8,0.6,2.1,1.2c1.3,0.6,3,1.2,4.8,1.4c0,0,0-0.4,0-1c0-0.3-0.1-0.7-0.1-1.1
				c-0.1-0.4-0.1-0.9-0.2-1.4c-0.2-1-0.6-2.2-1.3-3.4c-0.6-1.2-1.4-2.5-2.7-3.6c0,0-1.1-0.7-2.6-1.2C33,266.9,31.2,266.6,29.5,267.4
				z"/>
			<path id="XMLID_9704_" fill="#469FF7" d="M29.5,267.5c0,0-0.2,0.4-0.5,1.1c-0.3,0.7-0.7,1.7-1.2,2.7c-0.5,1-1.1,2.2-1.8,3.2
				c-0.7,1-1.4,1.9-2.2,2.4c0,0-0.8,0.6-2.1,1.3c-1.3,0.7-3,1.5-4.7,1.8c0,0,0-0.5,0-1.2c0-0.8,0-1.9,0.3-3.1c0.3-1.2,0.7-2.7,1.4-4
				c0.4-0.7,0.8-1.4,1.3-2c0.5-0.7,1.1-1.3,1.8-1.9c0,0,1.2-0.6,2.8-1C26.1,266.5,28,266.4,29.5,267.5z"/>
		</g>
		<g id="XMLID_9700_">
			<path id="XMLID_9702_" fill="#469FF7" d="M32.9,283c0,0,0.2,0.4,0.4,1.1c0.3,0.7,0.7,1.6,1.3,2.6c0.6,1,1.2,2,2,2.9
				c0.8,0.9,1.7,1.6,2.5,2c0,0,0.9,0.5,2.2,0.9c0.7,0.2,1.4,0.4,2.3,0.6c0.8,0.1,1.7,0.2,2.6,0.2c0,0,0-0.4-0.2-1
				c-0.1-0.6-0.3-1.5-0.7-2.5c-0.2-0.5-0.4-1-0.7-1.6c-0.3-0.5-0.6-1.1-1-1.6c-0.8-1.1-1.8-2.2-3.2-3.2c0,0-0.3-0.1-0.8-0.3
				c-0.5-0.2-1.1-0.4-1.9-0.6C36.4,282.1,34.4,282,32.9,283z"/>
			<path id="XMLID_9701_" fill="#469FF7" d="M32.9,283.1c0,0-0.1,0.5-0.3,1.2c-0.2,0.7-0.5,1.7-0.8,2.8c-0.7,2.2-1.8,4.8-3.3,6.1
				c0,0-0.7,0.7-1.9,1.6c-1.2,0.9-2.7,1.9-4.4,2.5c0,0-0.1-0.5-0.2-1.2c-0.1-0.8-0.2-1.9-0.1-3.1c0.1-1.3,0.3-2.7,0.8-4.2
				c0.5-1.5,1.4-3,2.6-4.3c0,0,1.1-0.8,2.6-1.3C29.4,282.6,31.3,282.3,32.9,283.1z"/>
		</g>
		<g id="XMLID_9697_">
			<path id="XMLID_9699_" fill="#469FF7" d="M38.5,298c0,0,0.2,0.4,0.6,1.1c0.4,0.6,0.9,1.5,1.6,2.4c1.4,1.8,3.2,3.7,5.2,4.2
				c0,0,1,0.3,2.4,0.6c1.4,0.2,3.2,0.4,4.9,0.1c0,0-0.1-0.4-0.3-1c-0.2-0.6-0.5-1.5-1-2.4c-0.3-0.5-0.6-0.9-0.9-1.4
				c-0.3-0.5-0.7-1-1.2-1.5c-0.9-1-2.1-1.9-3.6-2.8c0,0-1.2-0.4-2.8-0.5C41.7,296.7,39.8,296.8,38.5,298z"/>
			<path id="XMLID_9698_" fill="#469FF7" d="M38.5,298.2c0,0,0,0.5-0.1,1.2c-0.1,0.8-0.3,1.8-0.5,2.9c-0.4,2.3-1.1,5-2.4,6.5
				c0,0-0.6,0.8-1.7,1.9c-1,1-2.4,2.3-4,3c0,0,0-0.1-0.1-0.3c-0.1-0.2-0.2-0.5-0.3-0.9c-0.2-0.8-0.4-1.8-0.5-3.1
				c-0.1-1.3-0.1-2.7,0.3-4.2c0.3-1.5,1-3.1,2-4.6c0,0,1-0.9,2.4-1.7C34.9,298.1,36.7,297.6,38.5,298.2z"/>
		</g>
		<g id="XMLID_9694_">
			<path id="XMLID_9696_" fill="#469FF7" d="M46,312.2c0,0,1.1,1.5,2.7,3.2c1.7,1.6,3.8,3.2,5.7,3.5c0,0,1,0.2,2.4,0.2
				c1.4,0,3.2-0.1,4.9-0.6c0,0-0.5-1.5-1.8-3.2c-0.7-0.8-1.4-1.8-2.5-2.6c-1.1-0.9-2.4-1.6-3.9-2.3c0,0-1.3-0.2-2.8-0.1
				C49.1,310.4,47.2,310.8,46,312.2z"/>
			<path id="XMLID_9695_" fill="#469FF7" d="M46,312.3c0,0,0.1,1.9,0,4.2c-0.1,2.3-0.4,5-1.5,6.7c0,0-0.5,0.9-1.4,2.1
				c-0.9,1.2-2.1,2.6-3.6,3.6c0,0-0.9-1.7-1.5-4.1c-0.1-0.6-0.3-1.3-0.3-2c0-0.7,0-1.5,0-2.3c0.1-1.6,0.5-3.2,1.3-4.8
				c0,0,0.8-1.1,2.1-2C42.4,312.8,44.2,311.9,46,312.3z"/>
		</g>
		<g id="XMLID_9691_">
			<path id="XMLID_9693_" fill="#469FF7" d="M55.4,325.2c0,0,1.3,1.4,3.1,2.7c0.9,0.7,2,1.3,3,1.8c1.1,0.5,2.1,0.8,3.1,0.8
				c0,0,0.2,0,0.7,0c0.4,0,1,0,1.7-0.1c1.4-0.2,3.2-0.5,4.8-1.3c0,0-0.7-1.4-2.2-2.9c-0.7-0.8-1.6-1.6-2.8-2.3
				c-0.6-0.4-1.2-0.7-1.9-1c-0.7-0.3-1.4-0.6-2.3-0.8c0,0-1.3,0-2.8,0.3C58.2,323,56.3,323.6,55.4,325.2z"/>
			<path id="XMLID_9692_" fill="#469FF7" d="M55.4,325.3c0,0,0.4,1.8,0.6,4.2c0.2,2.3,0.3,5.1-0.5,6.9c0,0-0.4,1-1.1,2.2
				c-0.7,1.3-1.7,2.8-3.1,4c0,0-1.1-1.5-2-3.9c-0.9-2.4-1.4-5.7-0.3-9.1c0,0,0.7-1.2,1.8-2.3C52,326.2,53.6,325.2,55.4,325.3z"/>
		</g>
		<g id="XMLID_9688_">
			<path id="XMLID_9690_" fill="#469FF7" d="M66.4,336.8c0,0,0.1,0.1,0.3,0.2c0.2,0.1,0.4,0.3,0.7,0.5c0.6,0.4,1.5,1,2.5,1.6
				c0.5,0.3,1,0.6,1.6,0.8c0.5,0.2,1.1,0.4,1.7,0.6c1.1,0.3,2.2,0.5,3.2,0.4c0,0,0.2,0,0.7-0.1c0.4-0.1,1-0.1,1.7-0.3
				c1.4-0.4,3.1-1,4.6-1.9c0,0-0.2-0.3-0.7-0.8c-0.4-0.5-1.1-1.1-1.9-1.8c-0.8-0.7-1.9-1.3-3.1-1.9c-0.6-0.3-1.3-0.5-2-0.7
				c-0.7-0.2-1.5-0.3-2.4-0.4c0,0-1.3,0.1-2.8,0.7C68.9,334.2,67.2,335.1,66.4,336.8z"/>
			<path id="XMLID_9689_" fill="#469FF7" d="M66.5,336.9c0,0,0.1,0.4,0.4,1.2c0.2,0.7,0.5,1.7,0.8,2.9c0.3,1.1,0.5,2.4,0.6,3.6
				c0.1,1.2,0.1,2.3-0.2,3.3c0,0-0.3,1-0.8,2.4c-0.5,1.4-1.3,3.1-2.5,4.4c0,0-1.3-1.3-2.5-3.5c-0.6-1.1-1.1-2.5-1.4-4
				c-0.3-1.5-0.4-3.2,0-5c0,0,0.5-1.2,1.5-2.5C63.2,338.2,64.7,337,66.5,336.9z"/>
		</g>
		<g id="XMLID_9685_">
			<path id="XMLID_9687_" fill="#469FF7" d="M79,346.7c0,0,0.4,0.3,1.1,0.6c0.7,0.3,1.6,0.8,2.7,1.2c1.1,0.4,2.2,0.8,3.4,1
				c1.2,0.2,2.3,0.2,3.2-0.1c0,0,1-0.2,2.3-0.7c1.3-0.5,3-1.4,4.3-2.5c0,0-0.3-0.3-0.8-0.7c-0.3-0.2-0.6-0.4-0.9-0.7
				c-0.3-0.3-0.8-0.5-1.2-0.8c-0.9-0.5-2-1.1-3.4-1.4c-1.3-0.4-2.8-0.6-4.5-0.5c0,0-0.3,0.1-0.8,0.3c-0.5,0.2-1.2,0.4-1.8,0.8
				C81.1,343.9,79.5,345,79,346.7z"/>
			<path id="XMLID_9686_" fill="#469FF7" d="M79,346.8c0,0,0.2,0.4,0.5,1.1c0.3,0.7,0.7,1.6,1.2,2.7c0.8,2.2,1.6,4.9,1.3,6.8
				c0,0-0.1,1-0.5,2.4c-0.3,1.4-0.9,3.2-1.9,4.7c0,0-0.4-0.3-0.9-0.8c-0.6-0.5-1.3-1.3-2.1-2.4c-1.5-2.1-2.9-5.1-2.7-8.7
				c0,0,0.3-1.3,1.2-2.7C76,348.6,77.2,347.2,79,346.8z"/>
		</g>
		<g id="XMLID_9682_">
			<path id="XMLID_9684_" fill="#469FF7" d="M92.7,354.9c0,0,0.4,0.2,1.1,0.5c0.7,0.3,1.7,0.6,2.8,0.8c1.1,0.3,2.3,0.5,3.5,0.5
				c1.2,0,2.3-0.1,3.2-0.5c0,0,1-0.4,2.2-1c0.6-0.3,1.3-0.8,2-1.3c0.7-0.5,1.3-1.1,1.9-1.8c0,0-0.3-0.2-0.9-0.6
				c-0.5-0.4-1.3-0.8-2.3-1.2c-0.5-0.2-1-0.4-1.6-0.5c-0.6-0.1-1.2-0.3-1.9-0.4c-1.3-0.2-2.8-0.2-4.5,0.1c0,0-0.3,0.1-0.8,0.4
				c-0.5,0.2-1.1,0.6-1.7,1C94.4,351.8,93,353.1,92.7,354.9z"/>
			<path id="XMLID_9683_" fill="#469FF7" d="M92.8,355c0,0,0.3,0.4,0.7,1c0.2,0.3,0.4,0.7,0.7,1.2c0.3,0.4,0.5,0.9,0.8,1.4
				c1.1,2,2.3,4.6,2.2,6.5c0,0,0,1-0.1,2.5c-0.1,1.4-0.5,3.3-1.2,4.9c0,0-1.7-0.9-3.4-2.8c-0.9-0.9-1.8-2.1-2.5-3.5
				c-0.7-1.4-1.2-3-1.4-4.8c0,0,0.2-1.3,0.8-2.8C90,357.2,91.1,355.6,92.8,355z"/>
		</g>
		<g id="XMLID_9679_">
			<path id="XMLID_9681_" fill="#469FF7" d="M107.5,361.2c0,0,0.5,0.1,1.2,0.3c0.7,0.1,1.7,0.4,2.9,0.5c1.1,0.1,2.4,0.1,3.5,0
				c0.6-0.1,1.1-0.1,1.6-0.3c0.5-0.2,1-0.4,1.4-0.6c0,0,0.9-0.5,2-1.3c1.1-0.9,2.5-2.1,3.4-3.6c0,0-1.3-0.8-3.4-1.3
				c-0.5-0.1-1.1-0.2-1.7-0.3c-0.6-0.1-1.2-0.2-1.9-0.2c-1.3,0-2.9,0.2-4.5,0.7c0,0-1.1,0.6-2.3,1.7
				C108.7,357.8,107.5,359.3,107.5,361.2z"/>
			<path id="XMLID_9680_" fill="#469FF7" d="M107.6,361.2c0,0,1.3,1.4,2.6,3.3c1.4,1.8,2.9,4.2,3.1,6.1c0,0,0.2,1,0.2,2.5
				c0,1.5,0,3.3-0.5,5c0,0-0.4-0.2-1.1-0.5c-0.7-0.4-1.6-1-2.6-1.7c-2-1.5-4.2-4.2-5-7.7c0,0,0-1.3,0.4-2.9
				C105.1,363.8,106,362.1,107.6,361.2z"/>
		</g>
		<g id="XMLID_9676_">
			<path id="XMLID_9678_" fill="#469FF7" d="M122.9,365.3c0,0,1.9,0.2,4.1,0.2c2.3-0.1,4.9-0.6,6.4-1.8c0,0,0.2-0.1,0.5-0.4
				c0.3-0.3,0.8-0.7,1.3-1.2c1-1,2.2-2.4,2.9-4c0,0-1.4-0.6-3.5-0.8c-1.1-0.1-2.3-0.2-3.6,0c-0.7,0.1-1.4,0.3-2.1,0.5
				c-0.7,0.2-1.5,0.5-2.2,0.8c0,0-1,0.8-2,2C123.7,361.8,122.7,363.5,122.9,365.3z"/>
			<path id="XMLID_9677_" fill="#469FF7" d="M123,365.4c0,0,1.5,1.2,3.1,2.9c0.4,0.4,0.8,0.9,1.2,1.3c0.4,0.5,0.8,0.9,1.2,1.4
				c0.7,1,1.3,2,1.5,2.9c0,0,0.3,1,0.6,2.4c0.2,1.4,0.4,3.3,0.2,5.1c0,0-1.8-0.5-4-1.7c-1.1-0.6-2.3-1.6-3.3-2.7
				c-1.1-1.1-2-2.5-2.6-4.2c0,0-0.2-1.3,0-2.9C121,368.3,121.6,366.5,123,365.4z"/>
		</g>
		<g id="XMLID_9673_">
			<path id="XMLID_9675_" fill="#469FF7" d="M138.8,367.3c0,0,0.1,0,0.3,0c0.2,0,0.5,0,0.9,0c0.8-0.1,1.8-0.2,2.9-0.4
				c1.1-0.2,2.3-0.4,3.4-0.9c1.1-0.5,2.1-1,2.7-1.7c0,0,0.7-0.7,1.6-1.8c0.9-1.1,1.8-2.7,2.3-4.4c0,0-0.4-0.1-1-0.2
				c-0.6-0.1-1.5-0.2-2.6-0.2c-1.1,0-2.3,0.2-3.6,0.6c-1.3,0.3-2.7,0.9-4.1,1.9c0,0-0.9,0.9-1.7,2.3
				C139.1,363.8,138.4,365.5,138.8,367.3z"/>
			<path id="XMLID_9674_" fill="#469FF7" d="M138.9,367.3c0,0,0.1,0.1,0.3,0.2c0.2,0.1,0.4,0.3,0.7,0.5c0.6,0.4,1.5,1,2.4,1.7
				c0.9,0.7,1.9,1.5,2.7,2.4c0.8,0.9,1.6,1.8,1.9,2.7c0,0,0.4,0.9,0.9,2.3c0.4,1.4,0.9,3.2,0.8,5c0,0-0.5,0-1.2-0.2
				c-0.8-0.2-1.8-0.4-3-1c-1.2-0.5-2.4-1.2-3.6-2.2c-0.6-0.5-1.2-1-1.7-1.7c-0.5-0.6-1-1.4-1.5-2.2c0,0-0.4-1.3-0.4-2.9
				C137.3,370.5,137.6,368.6,138.9,367.3z"/>
		</g>
		<g id="XMLID_9670_">
			<path id="XMLID_9672_" fill="#469FF7" d="M154.9,367.1c0,0,0.5-0.1,1.2-0.2c0.4-0.1,0.8-0.2,1.3-0.3c0.5-0.1,1-0.3,1.5-0.5
				c2.2-0.7,4.6-1.8,5.7-3.4c0,0,0.6-0.8,1.3-2c0.7-1.2,1.4-2.9,1.7-4.6c0,0-0.1,0-0.3,0c-0.2,0-0.4,0-0.8-0.1c-0.6,0-1.6,0-2.6,0.2
				c-0.5,0.1-1.1,0.2-1.7,0.4c-0.6,0.2-1.2,0.3-1.8,0.6c-1.2,0.5-2.5,1.3-3.8,2.5c0,0-0.8,1-1.4,2.4
				C154.7,363.6,154.2,365.4,154.9,367.1z"/>
			<path id="XMLID_9671_" fill="#469FF7" d="M155,367.1c0,0,0.4,0.2,1.1,0.5c0.7,0.3,1.6,0.9,2.6,1.4c2,1.1,4.3,2.7,5.3,4.4
				c0,0,0.6,0.9,1.2,2.2c0.6,1.3,1.3,3,1.5,4.8c0,0-0.5,0-1.2,0c-0.8-0.1-1.9-0.2-3.1-0.6c-1.2-0.3-2.6-0.8-3.9-1.7
				c-1.3-0.8-2.6-2-3.7-3.4c0,0-0.6-1.2-0.8-2.8C153.7,370.5,153.8,368.6,155,367.1z"/>
		</g>
		<g id="XMLID_9667_">
			<path id="XMLID_9669_" fill="#469FF7" d="M170.7,364.8c0,0,1.8-0.5,3.9-1.5c2-1,4.3-2.5,5.2-4.2c0,0,0.5-0.9,1-2.2
				c0.5-1.3,1-3.1,1.1-4.8c0,0-1.6,0-3.6,0.6c-1,0.3-2.2,0.7-3.3,1.5c-0.6,0.4-1.2,0.8-1.7,1.3c-0.6,0.5-1.2,1-1.7,1.7
				c0,0-0.6,1.1-1.1,2.6C170.1,361.3,169.8,363.2,170.7,364.8z"/>
			<path id="XMLID_9668_" fill="#469FF7" d="M170.8,364.8c0,0,1.8,0.5,4,1.4c2.1,0.9,4.6,2.1,5.8,3.6c0,0,0.7,0.8,1.5,2
				c0.8,1.2,1.7,2.9,2.2,4.6c0,0-1.9,0.3-4.4,0c-0.6-0.1-1.3-0.2-2-0.4c-0.7-0.2-1.4-0.4-2.1-0.8c-1.4-0.6-2.8-1.5-4.1-2.8
				c0,0-0.7-1.1-1.2-2.7C170.1,368.3,169.9,366.4,170.8,364.8z"/>
		</g>
		<g id="XMLID_9664_">
			<path id="XMLID_9666_" fill="#469FF7" d="M186.1,360.4c0,0,1.7-0.8,3.6-2c0.5-0.3,1-0.6,1.4-1c0.5-0.4,0.9-0.8,1.3-1.2
				c0.8-0.8,1.5-1.7,1.8-2.6c0,0,0.1-0.2,0.2-0.6c0.1-0.4,0.3-1,0.5-1.7c0.3-1.4,0.6-3.2,0.4-5c0,0-0.4,0.1-1,0.2
				c-0.6,0.2-1.5,0.5-2.4,0.9c-2,0.8-4.2,2.5-6.1,5.3c0,0-0.5,1.2-0.7,2.8C185,357,185,358.9,186.1,360.4z"/>
			<path id="XMLID_9665_" fill="#469FF7" d="M186.2,360.3c0,0,1.9,0.3,4.1,0.8c2.3,0.6,4.9,1.4,6.3,2.8c0,0,0.8,0.7,1.7,1.8
				c1,1.1,2.1,2.6,2.8,4.3c0,0-1.8,0.6-4.3,0.6c-2.6,0-5.8-0.6-8.7-2.8c0,0-0.9-1-1.5-2.5C185.9,363.9,185.5,362,186.2,360.3z"/>
		</g>
		<g id="XMLID_9661_">
			<path id="XMLID_9663_" fill="#469FF7" d="M200.7,353.8c0,0,0.4-0.2,1-0.7c0.6-0.4,1.4-1.1,2.3-1.8c1.7-1.5,3.4-3.5,3.8-5.4
				c0,0,0.3-1,0.4-2.4c0.1-1.4,0.1-3.3-0.3-5c0,0-0.4,0.1-1,0.4c-0.6,0.3-1.4,0.7-2.3,1.2c-0.9,0.6-1.9,1.3-2.8,2.3
				c-0.9,1-1.8,2.2-2.5,3.7c0,0-0.3,1.3-0.3,2.8C199.1,350.6,199.4,352.5,200.7,353.8z"/>
			<path id="XMLID_9662_" fill="#469FF7" d="M200.8,353.8c0,0,0.5,0,1.2,0.1c0.8,0,1.8,0.1,2.9,0.2c1.1,0.1,2.4,0.3,3.6,0.6
				c1.2,0.3,2.2,0.7,3,1.3c0,0,0.9,0.6,2,1.5c1.1,1,2.4,2.3,3.3,3.8c0,0-0.4,0.2-1.2,0.5c-0.7,0.2-1.8,0.6-3,0.7
				c-1.3,0.2-2.7,0.2-4.3,0c-0.8-0.1-1.5-0.3-2.3-0.5c-0.8-0.3-1.6-0.6-2.4-1.1c0,0-1-0.9-1.8-2.3
				C201,357.3,200.3,355.5,200.8,353.8z"/>
		</g>
		<g id="XMLID_9658_">
			<path id="XMLID_9660_" fill="#469FF7" d="M214.3,345.3c0,0,0.4-0.3,0.9-0.8c0.6-0.5,1.3-1.3,2-2.1c0.7-0.9,1.5-1.8,2.1-2.8
				c0.6-1,0.9-2.1,1-3c0,0,0.1-1,0.1-2.4c0-1.4-0.3-3.2-1-4.9c0,0-1.4,0.7-3,2c-0.8,0.7-1.7,1.6-2.4,2.7c-0.8,1.1-1.5,2.4-2,4.1
				c0,0,0,0.3,0,0.8c0,0.5,0,1.2,0.1,2C212.3,342.4,212.8,344.2,214.3,345.3z"/>
			<path id="XMLID_9659_" fill="#469FF7" d="M214.4,345.3c0,0,0.5-0.1,1.2-0.1c0.8,0,1.8-0.1,3-0.2c2.3-0.1,5.1,0.1,6.8,1
				c0,0,0.9,0.4,2.1,1.2c1.2,0.8,2.7,1.9,3.8,3.3c0,0-0.4,0.3-1.1,0.6c-0.7,0.4-1.7,0.8-2.9,1.1c-1.2,0.3-2.7,0.6-4.2,0.6
				c-1.5,0-3.2-0.3-4.9-1c0,0-1.1-0.8-2.1-2C215.1,348.8,214.2,347.1,214.4,345.3z"/>
		</g>
		<g id="XMLID_9655_">
			<path id="XMLID_9657_" fill="#469FF7" d="M226.6,335c0,0,0.3-0.3,0.8-0.9c0.5-0.6,1.1-1.4,1.7-2.4c1.2-1.9,2.4-4.3,2.2-6.3
				c0,0,0-1-0.3-2.4c-0.2-1.4-0.7-3.1-1.6-4.7c0,0-0.1,0.1-0.2,0.2c-0.1,0.1-0.4,0.3-0.6,0.5c-0.5,0.4-1.2,1-1.9,1.8
				c-1.4,1.6-3,3.9-3.5,7.3c0,0,0,1.3,0.5,2.8C224.2,332.4,225,334.2,226.6,335z"/>
			<path id="XMLID_9656_" fill="#469FF7" d="M226.7,335c0,0,0.5-0.1,1.2-0.3c0.7-0.2,1.8-0.3,2.9-0.5c2.3-0.4,5-0.6,6.9,0.1
				c0,0,1,0.3,2.3,0.9c1.3,0.6,2.9,1.5,4.2,2.8c0,0-0.3,0.3-1,0.8c-0.6,0.4-1.6,1-2.8,1.5c-1.2,0.5-2.5,1-4.1,1.2
				c-1.6,0.2-3.2,0.1-5-0.3c0,0-1.2-0.6-2.4-1.7C227.9,338.4,226.7,336.8,226.7,335z"/>
		</g>
		<g id="XMLID_9652_">
			<path id="XMLID_9654_" fill="#469FF7" d="M237.4,323.2c0,0,0.3-0.4,0.7-1c0.4-0.6,0.9-1.5,1.4-2.6c0.5-1,0.9-2.2,1.2-3.3
				c0.1-0.6,0.2-1.1,0.3-1.6c0-0.5,0-1.1-0.1-1.5c0,0-0.2-1-0.6-2.4c-0.4-1.3-1.1-3-2.2-4.4c0,0-1.2,1-2.4,2.7
				c-0.3,0.4-0.6,0.9-0.9,1.5c-0.3,0.5-0.6,1.1-0.8,1.8c-0.2,0.6-0.4,1.3-0.6,2.1c-0.1,0.4-0.1,0.8-0.2,1.2c0,0.4-0.1,0.8-0.1,1.2
				c0,0,0.2,1.3,0.8,2.7C234.7,320.9,235.7,322.6,237.4,323.2z"/>
			<path id="XMLID_9653_" fill="#469FF7" d="M237.5,323.2c0,0,1.7-0.7,4-1.4c2.2-0.7,4.9-1.3,6.8-0.9c0,0,1,0.2,2.4,0.6
				c1.4,0.4,3.1,1.1,4.6,2.2c0,0-0.1,0.1-0.2,0.2c-0.2,0.2-0.4,0.4-0.7,0.6c-0.6,0.5-1.4,1.2-2.5,1.9c-2.1,1.4-5.3,2.5-8.9,2.1
				c0,0-1.3-0.4-2.6-1.3C239.2,326.4,237.8,325,237.5,323.2z"/>
		</g>
		<g id="XMLID_9649_">
			<path id="XMLID_9651_" fill="#469FF7" d="M246.6,310.1c0,0,0.9-1.7,1.6-3.8c0.7-2.2,1.1-4.8,0.5-6.6c0,0-0.3-1-0.9-2.3
				c-0.6-1.3-1.6-2.8-2.8-4.1c0,0-1.1,1.1-2,3c-0.4,1-1,2.1-1.2,3.4c-0.1,0.7-0.2,1.4-0.3,2.1c0,0.8,0,1.5,0,2.4
				c0,0,0.4,1.2,1.2,2.6C243.5,308.2,244.8,309.6,246.6,310.1z"/>
			<path id="XMLID_9650_" fill="#469FF7" d="M246.6,310c0,0,1.6-1,3.7-1.9c1.1-0.5,2.2-1,3.4-1.3c1.1-0.4,2.3-0.6,3.3-0.5
				c0,0,1,0,2.5,0.3c1.4,0.3,3.3,0.7,4.8,1.6c0,0-1.1,1.6-3,3.2c-0.9,0.8-2.2,1.6-3.6,2.2c-1.4,0.6-3.1,1-4.9,1.1c0,0-1.3-0.2-2.7-1
				C248.7,312.9,247.1,311.7,246.6,310z"/>
		</g>
		<g id="XMLID_9646_">
			<path id="XMLID_9648_" fill="#469FF7" d="M253.8,295.8c0,0,0.6-1.8,1-4c0.1-0.6,0.2-1.1,0.2-1.7c0-0.6,0-1.2,0-1.8
				c-0.1-1.2-0.3-2.3-0.7-3.1c0,0-0.1-0.2-0.3-0.6c-0.2-0.4-0.5-0.9-0.9-1.5c-0.8-1.2-2-2.6-3.4-3.7c0,0-0.2,0.3-0.5,0.9
				c-0.3,0.6-0.6,1.4-1,2.4c-0.7,2-1.1,4.8-0.3,8c0,0,0.6,1.2,1.6,2.4C250.6,294.3,252,295.6,253.8,295.8z"/>
			<path id="XMLID_9647_" fill="#469FF7" d="M253.9,295.7c0,0,1.4-1.2,3.4-2.4c2-1.2,4.4-2.6,6.3-2.7c0,0,1-0.1,2.5-0.1
				c1.5,0,3.3,0.2,5,0.9c0,0-0.8,1.7-2.5,3.6c-1.8,1.8-4.4,3.9-8,4.4c0,0-1.3-0.1-2.9-0.6C256.3,298.3,254.6,297.3,253.9,295.7z"/>
		</g>
		<g id="XMLID_9643_">
			<path id="XMLID_9645_" fill="#469FF7" d="M259,280.6c0,0,0.1-0.5,0.2-1.2c0.1-0.8,0.2-1.8,0.2-2.9c0-1.1,0-2.4-0.2-3.5
				c-0.2-1.2-0.6-2.2-1.1-3c0,0-0.5-0.9-1.4-1.9c-0.9-1.1-2.3-2.3-3.8-3.2c0,0-0.2,0.3-0.4,1c-0.2,0.6-0.5,1.5-0.7,2.5
				c-0.2,1-0.3,2.3-0.2,3.6c0.1,1.3,0.3,2.8,1,4.4c0,0,0.2,0.3,0.5,0.7c0.3,0.4,0.8,0.9,1.4,1.5C255.6,279.6,257.1,280.7,259,280.6z
				"/>
			<path id="XMLID_9644_" fill="#469FF7" d="M259,280.5c0,0,0.3-0.3,0.9-0.9c0.5-0.5,1.3-1.2,2.2-2c1.8-1.5,4-3.1,5.9-3.5
				c0,0,1-0.2,2.4-0.4c1.4-0.2,3.3-0.2,5.1,0.2c0,0-0.1,0.5-0.4,1.2c-0.3,0.7-0.8,1.7-1.5,2.7c-1.5,2.1-3.8,4.4-7.3,5.5
				c0,0-1.3,0.1-2.9-0.2C261.8,282.8,260,282.1,259,280.5z"/>
		</g>
		<g id="XMLID_9640_">
			<path id="XMLID_9642_" fill="#469FF7" d="M262,264.9c0,0,0-0.5,0-1.2c0-0.8,0-1.8-0.1-2.9c-0.3-2.3-0.8-4.9-2.2-6.3
				c0,0-0.7-0.8-1.7-1.7c-1.1-0.9-2.5-2-4.2-2.6c0,0-0.6,1.5-0.6,3.6c0,0.5,0,1.1,0,1.7c0.1,0.6,0.1,1.2,0.2,1.9
				c0.3,1.3,0.8,2.8,1.6,4.2c0,0,0.8,1,2.1,1.9C258.5,264.4,260.2,265.2,262,264.9z"/>
			<path id="XMLID_9641_" fill="#469FF7" d="M262.1,264.8c0,0,0.3-0.4,0.8-1c0.5-0.6,1.2-1.4,1.9-2.3c1.5-1.7,3.5-3.7,5.4-4.3
				c0,0,1-0.4,2.4-0.7c1.4-0.3,3.2-0.7,5-0.5c0,0,0,0.1-0.1,0.3c0,0.2-0.1,0.5-0.2,0.9c-0.2,0.7-0.6,1.8-1.2,2.9
				c-0.6,1.1-1.3,2.4-2.4,3.5c-1.1,1.1-2.4,2.2-4.1,2.9c0,0-1.3,0.3-2.9,0.2C265.1,266.7,263.2,266.2,262.1,264.8z"/>
		</g>
	</g>
	<g id="XMLID_4869_">
		<polygon id="XMLID_9636_" fill="#0063D6" points="149.9,244.3 168.1,225.8 149.9,188.8 		"/>
		<polygon id="XMLID_9633_" fill="#0063D6" points="149.9,244.3 179.5,260.7 209.2,231.9 		"/>
		<polygon id="XMLID_9630_" fill="#0063D6" points="149.9,244.3 120.3,260.7 90.7,231.9 		"/>
		<polygon id="XMLID_9627_" fill="#0063D6" points="149.9,244.4 149.9,282.3 113.4,301.5 		"/>
		<polygon id="XMLID_9626_" fill="#0063D6" points="149.9,244.4 149.9,282.3 186.4,301.5 		"/>
		<g id="XMLID_9545_">
			<polygon id="XMLID_9625_" fill="#469FF7" points="149.9,244.3 131.6,225.9 149.9,188.8 			"/>
			<polygon id="XMLID_9624_" fill="#469FF7" points="149.9,244.3 168.1,225.8 209.2,231.9 			"/>
			<polygon id="XMLID_9623_" fill="#469FF7" points="149.9,244.3 131.6,225.9 90.6,231.9 			"/>
			<polygon id="XMLID_9622_" fill="#469FF7" points="149.9,244.3 120.4,260.7 113.3,301.5 			"/>
			<polygon id="XMLID_9555_" fill="#469FF7" points="149.9,244.3 179.4,260.7 186.5,301.5 			"/>
		</g>
		<g id="XMLID_9540_" opacity="0.3">
			<polygon id="XMLID_9544_" fill="#FFFFFF" points="150.1,282.3 149.6,282.3 149.6,244.3 149.7,188.8 150.1,188.8 150.1,244.3 			
				"/>
			<polygon id="XMLID_9543_" fill="#469FF7" points="149.2,244.7 167.9,225.6 168.3,225.9 150.5,244 209.1,231.7 209.2,232.1 			"/>
			<polygon id="XMLID_9542_" fill="#FFFFFF" points="113.5,301.6 113.1,301.4 149.2,245 120.5,260.9 120.3,260.5 149.8,244.1 
				150.1,244.5 			"/>
			<polygon id="XMLID_9541_" fill="#FFFFFF" points="150.5,244.7 90.5,232.1 90.6,231.7 149.2,244 131.4,226.1 131.8,225.8 			"/>
		</g>
	</g>
</g>
</svg>
